1 10 20
100 200 125
201 210 89
900 1000 174
353 566 142
547 866 171
375 973 179
115 172 125
333 887 179
132 499 144
10 23 21
3 43 112
50 90 116
78 86 111
85 93 93
27 62 113
52 99 119
21 58 113
58 74 116
37 44 110
31 64 113
2 33 112
3 91 116
40 81 116
2 100 119
71 89 116
89 96 106
96 97 119
37 77 116
79 91 111
12 47 112
38 59 113
21 40 112
44 69 113
9 59 113
67 94 116
65 77 116
50 89 116
19 57 113
87 100 119
5 73 116
65 77 116
15 40 112
45 70 113
6 32 112
1 45 112
17 42 112
11 45 112
13 97 119
29 36 107
57 100 119
9 29 112
8 26 24
33 64 113
14 72 113
45 81 116
70 76 116
18 24 21
30 52 110
17 26 24
51 91 116
13 15 18
9 81 116
62 77 116
14 24 21
43 93 116
39 89 116
1 21 21
48 89 116
34 47 110
46 84 116
30 89 116
5 24 21
15 18 21
43 52 105
20 29 112
27 35 112
52 90 116
81 97 119
43 88 116
37 63 113
17 41 112
40 97 119
52 76 116
42 79 116
33 74 116
25 49 112
60 65 108
11 59 113
58 78 116
64 97 119
10 84 116
30 31 107
31 41 110
36 51 110
66 73 116
70 93 116
7 55 113
75 92 111
50 53 25
73 93 116
49 78 116
38 51 110
60 62 108
8 79 116
92 95 106
21 91 116
18 49 112
1 22 21
1 3 8
303 893 179
229 850 171
92 506 144
319 368 144
291 363 144
422 568 142
476 661 145
31 354 144
439 644 142
508 785 171
290 771 171
44 555 144
474 747 171
430 706 171
670 821 171
309 948 179
762 793 153
843 874 179
61 866 171
228 574 144
63 255 128
420 640 142
672 879 179
735 824 153
776 875 179
885 904 148
636 806 171
190 794 171
469 781 171
210 450 144
64 883 179
285 435 144
77 193 125
539 906 179
332 863 171
135 783 171
409 413 134
875 973 174
566 752 171
896 960 174
268 538 144
290 806 171
17 52 112
444 502 142
820 821 29
698 728 171
424 777 171
130 415 144
300 940 179
40 318 131
4 675 145
246 477 144
160 463 144
547 956 179
422 652 145
84 100 119
747 880 179
135 711 171
565 740 171
30 273 128
537 690 145
516 954 179
8 98 119
231 973 179
576 922 179
32 218 125
684 852 171
4 872 179
301 661 145
236 377 144
21 775 171
289 563 144
86 709 171
521 966 179
680 928 179
38 751 171
169 694 145
195 390 144
236 367 144
284 710 171
484 864 171
734 873 179
299 454 144
443 734 171
3 920 179
411 508 142
81 791 171
461 725 171
49 931 179
613 914 179
442 564 142
406 439 134
138 265 128
84 708 171
739 845 153
773 824 153
618 722 171
183 380 144
155 463 144
70 234 128
1742 2577 209
950 3014 217
1373 3486 217
452 1122 179
1045 4806 238
54 3746 238
1055 3503 217
3119 4806 238
1018 2737 209
1144 4988 238
317 1452 182
1879 3308 217
2520 3275 217
3157 4742 238
2418 4950 238
3945 4859 215
348 3491 217
97 4251 238
3827 4213 189
1006 4238 238
720 3311 217
3985 4515 215
667 2451 183
447 4510 238
3937 4727 215
290 1845 182
2038 2639 209
459 4914 238
231 799 171
1545 4236 238
2197 3782 238
2867 4911 238
2048 4990 238
218 1448 182
282 3971 238
1384 4206 238
1485 4155 238
4163 4368 202
2451 4630 238
2364 2900 209
4088 4140 189
1925 4415 238
2063 2272 183
1075 1897 182
78 4920 238
2443 3793 238
780 3784 238
1600 4280 238
1691 2993 217
429 3156 217
3139 9189 262
1237 9505 262
2734 8335 262
3491 4407 238
2017 4041 238
1349 8737 262
393 5895 238
2973 9247 262
6135 6710 262
4968 9875 262
2303 5335 238
6634 8742 257
848 1302 182
5162 7517 262
3940 5017 215
2100 3942 238
5269 6011 236
6810 9918 260
472 1890 182
772 4885 238
2742 5848 238
2470 3201 217
2145 5798 238
4254 8992 262
7410 7677 239
5082 6177 262
344 5084 238
767 9975 262
6861 8141 257
4373 7291 262
4048 8592 262
575 3113 217
4197 5327 215
4740 8226 262
2678 4195 238
2874 7986 262
1 999999 525
1 1 1
781652 212903 509
